/home/thegrymek/Desktop/tadeusz/panzerkampfwagen-osgi2/Terrain/src/main/java/panzerkamp/object/terrain/ParserTerrain.java
/home/thegrymek/Desktop/tadeusz/panzerkampfwagen-osgi2/Terrain/src/main/java/panzerkamp/object/terrain/ITerrain.java
/home/thegrymek/Desktop/tadeusz/panzerkampfwagen-osgi2/Terrain/src/main/java/panzerkamp/object/terrain/Activator.java
/home/thegrymek/Desktop/tadeusz/panzerkampfwagen-osgi2/Terrain/src/main/java/panzerkamp/object/terrain/PlainSquare.java
/home/thegrymek/Desktop/tadeusz/panzerkampfwagen-osgi2/Terrain/src/main/java/panzerkamp/object/terrain/Terrain.java
